<svg width="410" height="410" viewBox="0 0 410 410" fill="none" xmlns="http://www.w3.org/2000/svg">
<circle cx="205.5" cy="204.5" r="191" fill="#D3D3FF" stroke="black" stroke-width="5"/>
<circle cx="205.501" cy="204.5" r="126.067" fill="#D3D3FF" stroke="black" stroke-width="5"/>
<g filter="url(#filter0_i_137_3)">
<circle cx="205.499" cy="204.5" r="63.6342" fill="black"/>
</g>
<circle cx="205.499" cy="204.5" r="66.1342" stroke="white" stroke-width="5"/>
<defs>
<filter id="filter0_i_137_3" x="136.865" y="135.866" width="137.269" height="141.269" filterUnits="userSpaceOnUse" color-interpolation-filters="sRGB">
<feFlood flood-opacity="0" result="BackgroundImageFix"/>
<feBlend mode="normal" in="SourceGraphic" in2="BackgroundImageFix" result="shape"/>
<feColorMatrix in="SourceAlpha" type="matrix" values="0 0 0 0 0 0 0 0 0 0 0 0 0 0 0 0 0 0 127 0" result="hardAlpha"/>
<feOffset dy="4"/>
<feGaussianBlur stdDeviation="2"/>
<feComposite in2="hardAlpha" operator="arithmetic" k2="-1" k3="1"/>
<feColorMatrix type="matrix" values="0 0 0 0 0 0 0 0 0 0 0 0 0 0 0 0 0 0 0.25 0"/>
<feBlend mode="normal" in2="shape" result="effect1_innerShadow_137_3"/>
</filter>
</defs>
</svg>
